##############################################################################
# Wargamer: Copyright (c) 1995-2001, Steven Green (wargamer@greenius.co.uk)	 #
# This Software is subject to the GNU General Public License.  				 #
# For License information see the file COPYING in the project root directory #
# For more information see the file README.									 #
##############################################################################

#####################################
# Makefile Include for Campaign Game
#
# This is included from wargamer.mk
#
#-------------------------------------------------------


LIBS += batai.lib
CFLAGS += -i=$(ROOT)\src\batai
lnk_dependencies += $(ROOT)\src\batai\batai.mif

!ifndef NOMAKELIB
!ifneq EXT LIB

TARGETS += makebataiLib

makebataiLib: .SYMBOLIC
	@echo Making batai.lib
	@cd src\batai
	@!wmake $(__MAKEOPTS__) $(MFLAGS) -f makefile
	@cd ..\..

!endif
!endif
